UID,vc-globo01_rate1,vc-globo01_rate2,vc-globo01_rate3,vc-globo01_rate4,vc-globo01_rate5,vc-globo05_rate1,vc-globo05_rate2,vc-globo05_rate3,vc-globo05_rate4,vc-globo05_rate5,vc-lcevc01_rate1,vc-lcevc01_rate2,vc-lcevc01_rate3,vc-lcevc01_rate4,vc-lcevc01_rate5,vc-philips01_rate1,vc-philips01_rate2,vc-philips01_rate3,vc-philips01_rate4,vc-philips01_rate5,vc-philips03_rate1,vc-philips03_rate2,vc-philips03_rate3,vc-philips03_rate4,vc-philips03_rate5
1,-3,-1,0,0,2,-2,-1,1,3,3,-1,1,0,1,1,-2,-1,0,0,0,-2,-1,1,1,1
2,-3,0,-1,0,3,-3,-2,0,2,3,-2,0,1,1,-1,-2,-2,0,0,1,-2,-2,0,0,0
3,-2,-1,-1,0,2,-2,0,1,1,1,-1,1,0,2,1,-2,-1,-1,0,1,-1,1,0,0,0
4,-3,-2,-1,2,1,-3,-2,-1,1,2,-2,1,2,3,-1,-3,-2,0,-2,1,-2,0,2,2,3
5,-3,-1,-1,0,2,-2,-2,-1,0,-1,-2,-1,1,0,0,-3,-2,-2,-1,0,-2,-2,-1,-1,1
6,-3,-2,1,1,2,-3,-3,0,3,3,-2,-1,-1,1,1,-3,-2,-2,-1,2,-3,-2,-2,0,1
7,-2,-1,-1,0,0,-2,-2,0,-1,1,1,1,2,0,2,-3,-2,-1,0,0,-3,-1,-1,-2,0
8,-3,-1,-1,1,2,-2,0,0,2,2,-1,0,0,0,1,-1,-2,0,1,1,-1,-1,1,1,1
9,-3,-1,1,1,1,-3,-2,2,3,1,-1,0,0,2,1,-2,-1,0,1,0,-2,1,0,1,2
10,3,-1,-1,0,2,-3,-1,1,1,2,-2,-2,-2,1,2,-2,-2,1,1,3,-1,-1,0,0,1
11,-2,-1,-1,1,1,-2,0,-1,1,1,-1,-1,1,1,2,-2,-1,0,0,0,-2,-1,-1,0,-1
12,-1,-2,-1,1,0,-2,-1,-1,1,2,-1,0,-1,0,1,-2,-1,0,0,0,0,0,1,1,1
13,-2,-2,-1,1,2,-3,-1,0,2,2,-1,-1,-1,1,1,-2,-2,1,0,1,-2,-1,-1,0,0
14,-3,-2,-1,1,0,-3,-2,-1,1,1,-3,0,-1,-1,-2,-3,-1,-1,-2,-1,0,-3,-1,0,0
15,-3,-2,-1,-1,0,-2,2,-1,-1,3,0,2,1,-1,3,-3,-2,-1,-1,-3,-3,-2,1,-1,2
16,-3,-2,-2,0,0,-3,-1,-1,0,0,-1,-1,0,0,1,-1,-2,-1,0,0,-2,-2,0,-1,-1
17,-3,0,0,-1,0,-2,-2,1,2,3,-2,1,0,0,2,-2,-2,1,2,0,-3,1,-1,1,2
18,-3,0,-1,0,1,-1,-1,0,1,2,-2,-1,1,1,2,-2,-1,0,2,2,-1,-1,-1,0,2
19,-3,0,0,2,3,-2,0,3,3,2,-1,-1,1,3,0,-3,0,0,2,1,-2,0,0,3,2
20,-3,-2,0,1,2,-3,-1,-1,1,3,-1,-1,0,0,1,-3,-2,0,0,0,-2,1,1,0,0
21,-3,0,-2,0,0,-3,-2,0,-1,2,-3,-2,0,-1,0,-3,-2,2,-1,-1,0,-1,-1,0,-2
22,-3,-2,-3,-1,2,-3,-3,-2,1,1,-3,-2,-1,-2,-1,-3,0,0,0,2,-3,-3,-2,0,-1
23,-2,-2,-2,0,0,-2,-2,-2,-1,-1,-2,-2,-2,0,-2,-2,-1,-1,0,0,-2,-2,1,0,-1
24,-3,-3,-1,0,0,-3,-2,0,1,1,-3,-2,1,2,1,-3,-3,-1,-1,0,-2,-1,0,0,1
25,-3,-1,-1,1,1,-1,0,0,2,1,-1,0,1,1,1,-2,-2,0,-1,0,-1,-1,2,1,2
26,-1,-2,-1,-1,0,-2,-1,-1,1,0,-2,-1,0,0,0,-2,-1,0,0,1,-1,-1,-1,0,1
27,-3,-1,-1,0,1,-2,-1,0,1,1,-2,-2,-1,0,0,-3,-1,-2,-1,-1,-2,-2,-1,-1,-1
28,-2,-1,-1,0,0,-2,-1,-1,0,0,-2,1,-1,1,0,-2,-1,-1,0,1,-2,1,0,0,1
29,-3,-2,0,0,1,-2,-3,1,2,3,-1,-2,1,3,2,-3,-2,-1,-1,2,-2,0,1,0,3
30,-3,-1,0,0,0,-2,-1,0,1,1,-2,0,0,0,0,-2,-1,0,0,0,-2,-1,-1,1,0
