UID,vc-globo01_rate1,vc-globo01_rate2,vc-globo01_rate3,vc-globo01_rate4,vc-globo01_rate5,vc-globo05_rate1,vc-globo05_rate2,vc-globo05_rate3,vc-globo05_rate4,vc-globo05_rate5,vc-lcevc01_rate1,vc-lcevc01_rate2,vc-lcevc01_rate3,vc-lcevc01_rate4,vc-lcevc01_rate5,vc-philips01_rate1,vc-philips01_rate2,vc-philips01_rate3,vc-philips01_rate4,vc-philips01_rate5,vc-philips03_rate1,vc-philips03_rate2,vc-philips03_rate3,vc-philips03_rate4,vc-philips03_rate5
1,-3,0,1,2,3,-3,-3,-2,2,1,-2,2,-1,3,1,-3,0,2,1,1,-3,1,1,2,2
2,-2,0,1,3,2,-2,-3,-1,-1,0,0,1,0,3,1,0,1,1,0,1,0,-2,0,1,-1
3,-2,-1,0,0,2,-3,-2,-1,0,2,-1,-1,1,0,2,-2,1,1,1,0,0,1,0,1,1
4,-1,-1,1,0,1,-3,-2,-2,-1,0,-1,1,1,-1,0,-1,1,0,0,1,-1,0,1,0,0
5,-2,0,0,1,3,-3,-3,0,0,2,1,1,3,2,3,-2,0,0,2,1,-2,0,2,2,2
6,1,1,2,2,2,-2,-1,-1,1,1,-1,0,0,-1,0,1,0,1,1,1,0,1,0,0,1
7,-2,-1,0,2,2,-3,-2,-1,-1,2,-2,-1,2,3,2,-1,1,1,1,1,-3,0,2,1,2
8,-1,0,1,1,1,-2,-1,-2,0,1,-1,0,0,1,1,0,0,1,0,0,-1,1,1,1,1
9,-3,1,1,1,3,-3,-3,-1,3,2,-2,-1,2,2,3,-1,-2,3,2,1,-2,-1,-2,-1,-1
10,-2,-1,-1,-1,0,-3,-2,-2,0,-1,-2,-1,0,2,-1,0,-1,-1,0,0,-1,0,0,-1,0
11,-2,-1,-1,0,-1,-2,-1,-2,-1,-1,-1,-1,0,0,-1,-1,0,0,0,1,-1,-1,0,0,0
12,-1,-1,0,-1,0,-1,0,0,0,0,1,1,0,0,0,0,0,-1,-1,-1,-1,-1,0,0,0
13,0,1,1,1,2,-3,-2,-1,-1,1,-2,0,0,1,2,1,1,1,2,1,-1,-1,1,1,1
14,-1,1,0,2,2,-3,-2,-2,-1,0,-1,2,2,2,2,0,1,2,2,2,-1,-1,0,1,2
15,-1,0,0,2,2,-3,-1,-1,2,1,1,0,0,1,1,0,-1,2,2,1,1,-1,1,2,2
16,-2,1,0,0,2,-2,-2,0,1,0,2,0,2,-1,-1,2,3,0,0,3,-1,-2,2,2,2
17,1,0,2,3,-1,-2,-1,-1,0,0,3,1,0,0,0,-1,-1,-1,-2,0,-1,-1,0,1,-1
18,-1,-1,1,1,2,-3,-1,-2,0,0,-1,0,0,0,0,0,-1,0,-1,1,-2,-1,-1,0,-1
19,-2,-1,1,3,2,-3,-2,-1,0,2,0,-1,0,1,1,1,1,1,2,2,-1,0,1,1,1
20,-2,-2,2,2,1,-3,-2,0,-1,0,-1,0,0,1,1,0,-1,-1,-1,1,-1,0,-1,-2,-1
21,-1,-1,0,1,1,-1,-1,1,0,-1,0,0,0,2,1,0,0,0,0,0,-1,-1,-2,-1,-1
22,-2,0,2,2,2,-2,-1,1,2,3,-2,1,0,2,2,0,0,2,1,2,1,2,1,3,1
23,-2,-1,-1,0,0,-2,-2,-2,1,0,-2,0,0,1,0,1,1,2,1,1,-1,-1,1,0,1
24,-1,-1,-1,1,1,-1,-1,0,0,0,0,0,0,-1,0,0,1,1,0,0,-1,-1,0,0,1
25,2,2,3,0,2,-3,-1,2,3,3,2,1,1,2,2,-1,1,2,2,3,1,2,2,3,3
26,0,0,1,2,1,-2,-2,0,0,2,0,1,0,-2,0,-1,0,1,2,1,-2,-1,0,2,1
27,1,-1,0,2,1,-2,-2,0,3,1,3,2,0,-1,2,2,0,1,0,-1,1,2,3,1,2
28,-1,-1,1,0,1,-1,-2,1,0,0,0,0,1,0,0,0,0,0,-1,1,0,0,0,0,0
29,-1,1,2,3,2,-3,-2,-1,0,2,-1,2,0,1,1,1,1,1,1,0,-1,1,-1,2,1
30,0,1,3,2,3,-3,-2,2,0,1,0,0,-1,2,2,0,0,1,0,1,0,1,-1,1,1
31,-3,-1,2,1,2,-2,-2,-1,1,2,-2,2,1,1,3,-1,1,1,2,2,-1,2,1,1,0
32,-3,-2,-1,0,1,-3,-2,-2,-1,0,-3,-1,0,0,1,-2,-1,1,1,2,-2,-1,0,0,-2
33,1,1,1,2,2,-2,-2,-1,-1,1,-2,0,2,1,1,2,1,2,3,3,-2,-2,-1,-2,-1
